{
    "chất lượng cơ sở vật chất, positive": 0,
    "chất lượng cơ sở vật chất, negative": 1,
    "chất lượng cơ sở vật chất, neutral": 2,
    "chất lượng khách sạn, positive": 3,
    "chất lượng khách sạn, negative": 4,
    "chất lượng khách sạn, neutral": 5,
    "chất lượng phòng ốc, positive": 6,
    "chất lượng phòng ốc, negative": 7,
    "chất lượng phòng ốc, neutral": 8,
    "chất lượng tiện nghi phòng, positive": 9,
    "chất lượng tiện nghi phòng, negative": 10,
    "chất lượng tiện nghi phòng, neutral": 11,
    "chất lượng đồ ăn và đồ uống, positive": 12,
    "chất lượng đồ ăn và đồ uống, negative": 13,
    "chất lượng đồ ăn và đồ uống, neutral": 14,
    "các thứ linh tinh của các tiện nghi phòng, positive": 15,
    "các thứ linh tinh của các tiện nghi phòng, negative": 16,
    "các thứ linh tinh của các tiện nghi phòng, neutral": 17,
    "các thứ linh tinh của cơ sở vật chất, positive": 18,
    "các thứ linh tinh của cơ sở vật chất, negative": 19,
    "các thứ linh tinh của cơ sở vật chất, neutral": 20,
    "các thứ linh tinh của khách sạn, positive": 21,
    "các thứ linh tinh của khách sạn, negative": 22,
    "các thứ linh tinh của khách sạn, neutral": 23,
    "các thứ linh tinh của phòng ốc, positive": 24,
    "các thứ linh tinh của phòng ốc, negative": 25,
    "các thứ linh tinh của phòng ốc, neutral": 26,
    "các thứ linh tinh của đồ ăn và đồ uống, positive": 27,
    "các thứ linh tinh của đồ ăn và đồ uống, negative": 28,
    "các thứ linh tinh của đồ ăn và đồ uống, neutral": 29,
    "các tính năng và thiết kế của các tiện nghi phòng, positive": 30,
    "các tính năng và thiết kế của các tiện nghi phòng, negative": 31,
    "các tính năng và thiết kế của các tiện nghi phòng, neutral": 32,
    "các tính năng và thiết kế của cơ sở vật chất, positive": 33,
    "các tính năng và thiết kế của cơ sở vật chất, negative": 34,
    "các tính năng và thiết kế của cơ sở vật chất, neutral": 35,
    "các tính năng và thiết kế của khách sạn, positive": 36,
    "các tính năng và thiết kế của khách sạn, negative": 37,
    "các tính năng và thiết kế của khách sạn, neutral": 38,
    "các tính năng và thiết kế của phòng ốc, positive": 39,
    "các tính năng và thiết kế của phòng ốc, negative": 40,
    "các tính năng và thiết kế của phòng ốc, neutral": 41,
    "dịch vụ, positive": 42,
    "dịch vụ, negative": 43,
    "dịch vụ, neutral": 44,
    "giá cơ sở vật chất, positive": 45,
    "giá cơ sở vật chất, negative": 46,
    "giá cơ sở vật chất, neutral": 47,
    "giá khách sạn, positive": 48,
    "giá khách sạn, negative": 49,
    "giá khách sạn, neutral": 50,
    "giá phòng ốc, positive": 51,
    "giá phòng ốc, negative": 52,
    "giá phòng ốc, neutral": 53,
    "giá tiện nghi phòng, positive": 54,
    "giá tiện nghi phòng, negative": 55,
    "giá tiện nghi phòng, neutral": 56,
    "giá đồ ăn và đồ uống, positive": 57,
    "giá đồ ăn và đồ uống, negative": 58,
    "giá đồ ăn và đồ uống, neutral": 59,
    "hình thức đồ ăn và đồ uống, positive": 60,
    "hình thức đồ ăn và đồ uống, negative": 61,
    "hình thức đồ ăn và đồ uống, neutral": 62,
    "sự dễ chịu của các tiện nghi phòng, positive": 63,
    "sự dễ chịu của các tiện nghi phòng, negative": 64,
    "sự dễ chịu của các tiện nghi phòng, neutral": 65,
    "sự dễ chịu của cơ sở vật chất, positive": 66,
    "sự dễ chịu của cơ sở vật chất, negative": 67,
    "sự dễ chịu của cơ sở vật chất, neutral": 68,
    "sự dễ chịu của khách sạn, positive": 69,
    "sự dễ chịu của khách sạn, negative": 70,
    "sự dễ chịu của khách sạn, neutral": 71,
    "sự dễ chịu của phòng ốc, positive": 72,
    "sự dễ chịu của phòng ốc, negative": 73,
    "sự dễ chịu của phòng ốc, neutral": 74,
    "tổng quan các tiện nghi phòng, positive": 75,
    "tổng quan các tiện nghi phòng, negative": 76,
    "tổng quan các tiện nghi phòng, neutral": 77,
    "tổng quan của cơ sở vật chất, positive": 78,
    "tổng quan của cơ sở vật chất, negative": 79,
    "tổng quan của cơ sở vật chất, neutral": 80,
    "tổng quan khách sạn, positive": 81,
    "tổng quan khách sạn, negative": 82,
    "tổng quan khách sạn, neutral": 83,
    "tổng quan phòng ốc, positive": 84,
    "tổng quan phòng ốc, negative": 85,
    "tổng quan phòng ốc, neutral": 86,
    "vệ sinh của các tiện nghi phòng, positive": 87,
    "vệ sinh của các tiện nghi phòng, negative": 88,
    "vệ sinh của các tiện nghi phòng, neutral": 89,
    "vệ sinh của cơ sở vật chất, positive": 90,
    "vệ sinh của cơ sở vật chất, negative": 91,
    "vệ sinh của cơ sở vật chất, neutral": 92,
    "vệ sinh của khách sạn, positive": 93,
    "vệ sinh của khách sạn, negative": 94,
    "vệ sinh của khách sạn, neutral": 95,
    "vệ sinh phòng ốc, positive": 96,
    "vệ sinh phòng ốc, negative": 97,
    "vệ sinh phòng ốc, neutral": 98,
    "vị trí, positive": 99,
    "vị trí, negative": 100,
    "vị trí, neutral": 101
}